{
  "swagger" : "2.0",
  "info" : {
    "version" : "1.0",
    "title" : "wildberries"
  },
  "tags" : [ {
    "name" : "Boxes"
  }, {
    "name" : "Buyers"
  }, {
    "name" : "Cells"
  }, {
    "name" : "Global Things"
  }, {
    "name" : "Orders"
  }, {
    "name" : "Order things"
  }, {
    "name" : "Returns"
  }, {
    "name" : "Return Boxes"
  }, {
    "name" : "Transaction Histories"
  } ],
  "paths" : {
    "/boxes" : {
      "get" : {
        "tags" : [ "Boxes" ],
        "summary" : "Your GET endpoint",
        "operationId" : "get-boxes",
        "parameters" : [ ],
        "responses" : {
          "200" : {
            "description" : "OK"
          }
        }
      },
      "post" : {
        "tags" : [ "Boxes" ],
        "summary" : "",
        "operationId" : "post-shop-boxes",
        "parameters" : [ ],
        "responses" : {
          "200" : {
            "description" : "OK"
          }
        }
      }
    },
    "/box/{id}" : {
      "get" : {
        "tags" : [ "Boxes" ],
        "summary" : "Your GET endpoint",
        "operationId" : "get-shop-box",
        "parameters" : [ {
          "name" : "id",
          "in" : "path",
          "required" : true
        } ],
        "responses" : {
          "200" : {
            "description" : "OK"
          }
        }
      },
      "put" : {
        "tags" : [ "Boxes" ],
        "summary" : "",
        "operationId" : "put-shop-box-id",
        "parameters" : [ {
          "name" : "id",
          "in" : "path",
          "required" : true
        } ],
        "responses" : {
          "200" : {
            "description" : "OK"
          }
        }
      },
      "delete" : {
        "tags" : [ "Boxes" ],
        "summary" : "",
        "operationId" : "delete-shop-box-id",
        "parameters" : [ {
          "name" : "id",
          "in" : "path",
          "required" : true
        } ],
        "responses" : {
          "200" : {
            "description" : "OK"
          }
        }
      }
    },
    "/buyers" : {
      "get" : {
        "tags" : [ "Buyers" ],
        "summary" : "Your GET endpoint",
        "operationId" : "get-buyers",
        "parameters" : [ ],
        "responses" : {
          "200" : {
            "description" : "OK"
          }
        }
      },
      "post" : {
        "tags" : [ "Buyers" ],
        "summary" : "",
        "operationId" : "post-buyers",
        "parameters" : [ ],
        "responses" : {
          "200" : {
            "description" : "OK"
          }
        }
      }
    },
    "/buyer/{id}" : {
      "get" : {
        "tags" : [ "Buyers" ],
        "summary" : "Your GET endpoint",
        "operationId" : "get-buyer",
        "parameters" : [ {
          "name" : "id",
          "in" : "path",
          "required" : true
        } ],
        "responses" : {
          "200" : {
            "description" : "OK"
          }
        }
      },
      "put" : {
        "tags" : [ "Buyers" ],
        "summary" : "",
        "operationId" : "put-buyer",
        "parameters" : [ {
          "name" : "id",
          "in" : "path",
          "required" : true
        } ],
        "responses" : {
          "200" : {
            "description" : "OK"
          }
        }
      },
      "delete" : {
        "tags" : [ "Buyers" ],
        "summary" : "",
        "operationId" : "delete-buyer",
        "parameters" : [ {
          "name" : "id",
          "in" : "path",
          "required" : true
        } ],
        "responses" : {
          "200" : {
            "description" : "OK"
          }
        }
      }
    },
    "/global-thing" : {
      "get" : {
        "tags" : [ "Global Things" ],
        "summary" : "Your GET endpoint",
        "operationId" : "get-global-things",
        "parameters" : [ ],
        "responses" : {
          "200" : {
            "description" : "OK"
          }
        }
      },
      "post" : {
        "tags" : [ "Global Things" ],
        "summary" : "",
        "operationId" : "post-global-thing",
        "parameters" : [ ],
        "responses" : {
          "200" : {
            "description" : "OK"
          }
        }
      }
    },
    "/global-thing/{id}" : {
      "get" : {
        "tags" : [ "Global Things" ],
        "summary" : "Your GET endpoint",
        "operationId" : "get-shop-global-thing",
        "parameters" : [ {
          "name" : "id",
          "in" : "path",
          "required" : true
        } ],
        "responses" : {
          "200" : {
            "description" : "OK"
          }
        }
      },
      "put" : {
        "tags" : [ "Global Things" ],
        "summary" : "",
        "operationId" : "put-shop-global-thing",
        "parameters" : [ {
          "name" : "id",
          "in" : "path",
          "required" : true
        } ],
        "responses" : {
          "200" : {
            "description" : "OK"
          }
        }
      },
      "delete" : {
        "tags" : [ "Global Things" ],
        "summary" : "",
        "operationId" : "delete-shop-global-thing",
        "parameters" : [ {
          "name" : "id",
          "in" : "path",
          "required" : true
        } ],
        "responses" : {
          "200" : {
            "description" : "OK"
          }
        }
      }
    },
    "/cells" : {
      "get" : {
        "tags" : [ "Cells" ],
        "summary" : "Your GET endpoint",
        "operationId" : "list-cells",
        "parameters" : [ ],
        "responses" : {
          "200" : {
            "description" : "OK"
          }
        }
      },
      "post" : {
        "tags" : [ "Cells" ],
        "summary" : "",
        "operationId" : "post-cell",
        "parameters" : [ ],
        "responses" : {
          "200" : {
            "description" : "OK"
          }
        }
      }
    },
    "/cell/{id}" : {
      "get" : {
        "tags" : [ "Cells" ],
        "summary" : "Your GET endpoint",
        "operationId" : "get-cell",
        "parameters" : [ {
          "name" : "id",
          "in" : "path",
          "required" : true
        } ],
        "responses" : {
          "200" : {
            "description" : "OK"
          }
        }
      },
      "put" : {
        "tags" : [ "Cells" ],
        "summary" : "",
        "operationId" : "put-cell",
        "parameters" : [ {
          "name" : "id",
          "in" : "path",
          "required" : true
        } ],
        "responses" : {
          "200" : {
            "description" : "OK"
          }
        }
      },
      "delete" : {
        "tags" : [ "Cells" ],
        "summary" : "",
        "operationId" : "delete-cell",
        "parameters" : [ {
          "name" : "id",
          "in" : "path",
          "required" : true
        } ],
        "responses" : {
          "200" : {
            "description" : "OK"
          }
        }
      }
    },
    "/orders" : {
      "get" : {
        "tags" : [ "Orders" ],
        "summary" : "Your GET endpoint",
        "operationId" : "list-orders",
        "parameters" : [ ],
        "responses" : {
          "200" : {
            "description" : "OK"
          }
        }
      },
      "post" : {
        "tags" : [ "Orders" ],
        "summary" : "",
        "operationId" : "post-order",
        "parameters" : [ ],
        "responses" : {
          "200" : {
            "description" : "OK"
          }
        }
      }
    },
    "/order/{id}" : {
      "get" : {
        "tags" : [ "Orders" ],
        "summary" : "Your GET endpoint",
        "operationId" : "get-order",
        "parameters" : [ {
          "name" : "id",
          "in" : "path",
          "required" : true
        } ],
        "responses" : {
          "200" : {
            "description" : "OK"
          }
        }
      },
      "put" : {
        "tags" : [ "Orders" ],
        "summary" : "",
        "operationId" : "put-order",
        "parameters" : [ {
          "name" : "id",
          "in" : "path",
          "required" : true
        } ],
        "responses" : {
          "200" : {
            "description" : "OK"
          }
        }
      },
      "delete" : {
        "tags" : [ "Orders" ],
        "summary" : "",
        "operationId" : "delete-order",
        "parameters" : [ {
          "name" : "id",
          "in" : "path",
          "required" : true
        } ],
        "responses" : {
          "200" : {
            "description" : "OK"
          }
        }
      }
    },
    "/order-things" : {
      "get" : {
        "tags" : [ "Order Things" ],
        "summary" : "Your GET endpoint",
        "operationId" : "list-order-things",
        "parameters" : [ ],
        "responses" : {
          "200" : {
            "description" : "OK"
          }
        }
      },
      "post" : {
        "tags" : [ "Order Things" ],
        "summary" : "",
        "operationId" : "post-order-thing",
        "parameters" : [ ],
        "responses" : {
          "200" : {
            "description" : "OK"
          }
        }
      }
    },
    "/order-things/{id}" : {
      "get" : {
        "tags" : [ "Order Things" ],
        "summary" : "Your GET endpoint",
        "operationId" : "get-order-thing",
        "parameters" : [ {
          "name" : "id",
          "in" : "path",
          "required" : true
        } ],
        "responses" : {
          "200" : {
            "description" : "OK"
          }
        }
      },
      "put" : {
        "tags" : [ "Order Things" ],
        "summary" : "",
        "operationId" : "put-order-thing",
        "parameters" : [ {
          "name" : "id",
          "in" : "path",
          "required" : true
        } ],
        "responses" : {
          "200" : {
            "description" : "OK"
          }
        }
      },
      "delete" : {
        "tags" : [ "Orders" ],
        "summary" : "",
        "operationId" : "delete-order-thing",
        "parameters" : [ {
          "name" : "id",
          "in" : "path",
          "required" : true
        } ],
        "responses" : {
          "200" : {
            "description" : "OK"
          }
        }
      }
    },
    "/return/{id}" : {
      "get" : {
        "tags" : [ "Returns" ],
        "summary" : "Your GET endpoint",
        "operationId" : "get-return",
        "parameters" : [ {
          "name" : "id",
          "in" : "path",
          "required" : true
        } ],
        "responses" : {
          "200" : {
            "description" : "OK"
          }
        }
      },
      "put" : {
        "tags" : [ "Returns" ],
        "summary" : "",
        "operationId" : "put-return",
        "parameters" : [ {
          "name" : "id",
          "in" : "path",
          "required" : true
        } ],
        "responses" : {
          "200" : {
            "description" : "OK"
          }
        }
      },
      "delete" : {
        "tags" : [ "Returns" ],
        "summary" : "",
        "operationId" : "delete-return",
        "parameters" : [ {
          "name" : "id",
          "in" : "path",
          "required" : true
        } ],
        "responses" : {
          "200" : {
            "description" : "OK"
          }
        }
      }
    },
    "/returns" : {
      "get" : {
        "tags" : [ "Returns" ],
        "summary" : "Your GET endpoint",
        "operationId" : "list-returns",
        "parameters" : [ ],
        "responses" : {
          "200" : {
            "description" : "OK"
          }
        }
      },
      "post" : {
        "tags" : [ "Returns" ],
        "summary" : "",
        "operationId" : "post-return",
        "parameters" : [ ],
        "responses" : {
          "200" : {
            "description" : "OK"
          }
        }
      }
    },
    "/return-box/{id}" : {
      "get" : {
        "tags" : [ "Return Boxes" ],
        "summary" : "Your GET endpoint",
        "operationId" : "get-return-box",
        "parameters" : [ {
          "name" : "id",
          "in" : "path",
          "required" : true
        } ],
        "responses" : {
          "200" : {
            "description" : "OK"
          }
        }
      },
      "put" : {
        "tags" : [ "Return Boxes" ],
        "summary" : "",
        "operationId" : "put-return-box",
        "parameters" : [ {
          "name" : "id",
          "in" : "path",
          "required" : true
        } ],
        "responses" : {
          "200" : {
            "description" : "OK"
          }
        }
      },
      "delete" : {
        "tags" : [ "Return Boxes" ],
        "summary" : "",
        "operationId" : "delete-return-box",
        "parameters" : [ {
          "name" : "id",
          "in" : "path",
          "required" : true
        } ],
        "responses" : {
          "200" : {
            "description" : "OK"
          }
        }
      }
    },
    "/return-boxes" : {
      "get" : {
        "tags" : [ "Return Boxes" ],
        "summary" : "Your GET endpoint",
        "operationId" : "list-return-boxes",
        "parameters" : [ ],
        "responses" : {
          "200" : {
            "description" : "OK"
          }
        }
      },
      "post" : {
        "tags" : [ "Return Boxes" ],
        "summary" : "",
        "operationId" : "post-return-box",
        "parameters" : [ ],
        "responses" : {
          "200" : {
            "description" : "OK"
          }
        }
      }
    },
    "/transaction-history/{id}" : {
      "get" : {
        "tags" : [ "Transaction Histories" ],
        "summary" : "Your GET endpoint",
        "operationId" : "get-transaction-history",
        "parameters" : [ {
          "name" : "id",
          "in" : "path",
          "required" : true
        } ],
        "responses" : {
          "200" : {
            "description" : "OK"
          }
        }
      },
      "put" : {
        "tags" : [ "Transaction Histories" ],
        "summary" : "",
        "operationId" : "put-transaction-history",
        "parameters" : [ {
          "name" : "id",
          "in" : "path",
          "required" : true
        } ],
        "responses" : {
          "200" : {
            "description" : "OK"
          }
        }
      },
      "delete" : {
        "tags" : [ "Transaction Histories" ],
        "summary" : "",
        "operationId" : "delete-transaction-history",
        "parameters" : [ {
          "name" : "id",
          "in" : "path",
          "required" : true
        } ],
        "responses" : {
          "200" : {
            "description" : "OK"
          }
        }
      }
    },
    "/transaction-histories" : {
      "get" : {
        "tags" : [ "Transaction Histories" ],
        "summary" : "Your GET endpoint",
        "operationId" : "list-transaction-histories",
        "parameters" : [ ],
        "responses" : {
          "200" : {
            "description" : "OK"
          }
        }
      },
      "post" : {
        "tags" : [ "Transaction Histories" ],
        "summary" : "",
        "operationId" : "post-transaction-history",
        "parameters" : [ ],
        "responses" : {
          "200" : {
            "description" : "OK"
          }
        }
      }
    }
  },
  "definitions" : { }
}
